module gitlab.com/quoeamaster/mini-service/inventory

go 1.21.5

require (
	github.com/beego/beego/v2 v2.2.1
	github.com/knadh/koanf v1.5.0
	gorm.io/driver/mysql v1.5.7
	gorm.io/gorm v1.25.10
)

require (
	filippo.io/edwards25519 v1.1.0 // indirect
	github.com/beorn7/perks v1.0.1 // indirect
	github.com/cespare/xxhash/v2 v2.2.0 // indirect
	github.com/fsnotify/fsnotify v1.4.9 // indirect
	github.com/go-sql-driver/mysql v1.8.1 // indirect
	github.com/hashicorp/golang-lru v0.5.4 // indirect
	github.com/jinzhu/inflection v1.0.0 // indirect
	github.com/jinzhu/now v1.1.5 // indirect
	github.com/kr/text v0.2.0 // indirect
	github.com/mitchellh/copystructure v1.2.0 // indirect
	github.com/mitchellh/mapstructure v1.5.0 // indirect
	github.com/mitchellh/reflectwalk v1.0.2 // indirect
	github.com/prometheus/client_golang v1.19.0 // indirect
	github.com/prometheus/client_model v0.5.0 // indirect
	github.com/prometheus/common v0.48.0 // indirect
	github.com/prometheus/procfs v0.12.0 // indirect
	github.com/shiena/ansicolor v0.0.0-20200904210342-c7312218db18 // indirect
	golang.org/x/crypto v0.22.0 // indirect
	golang.org/x/net v0.21.0 // indirect
	golang.org/x/sys v0.19.0 // indirect
	golang.org/x/text v0.14.0 // indirect
	google.golang.org/protobuf v1.33.0 // indirect
	gopkg.in/yaml.v3 v3.0.1 // indirect
)
