module gitlab.com/quoeamaster/mini-service/delivery

go 1.21.5

require (
	github.com/beego/beego/v2 v2.2.2
	github.com/prometheus/client_golang v1.19.1
)

require (
	github.com/beorn7/perks v1.0.1 // indirect
	github.com/cespare/xxhash/v2 v2.2.0 // indirect
	github.com/hashicorp/golang-lru v0.5.4 // indirect
	github.com/kr/text v0.2.0 // indirect
	github.com/mitchellh/mapstructure v1.5.0 // indirect
	github.com/prometheus/client_model v0.5.0 // indirect
	github.com/prometheus/common v0.48.0 // indirect
	github.com/prometheus/procfs v0.12.0 // indirect
	github.com/shiena/ansicolor v0.0.0-20200904210342-c7312218db18 // indirect
	golang.org/x/crypto v0.23.0 // indirect
	golang.org/x/net v0.23.0 // indirect
	golang.org/x/sys v0.20.0 // indirect
	golang.org/x/text v0.15.0 // indirect
	google.golang.org/protobuf v1.34.1 // indirect
	gopkg.in/yaml.v3 v3.0.1 // indirect
)
